{
  "uniqueId": "wangdaye.com.geometricweather:9ccc1580e169aaba39b63b1d93795ac6c587885c",
  "developers": [
    {
      "name": "UniVerse DevOps"
    }
  ],
  "artifactVersion": "",
  "description": "A Material Design Weather Application UniVerse Weather was forked from",
  "name": "Geometric Weather App",
  "website": "https://github.com/Universe-devops/UniverseWeather",
  "licenses": [
    "Copyright © 2024 UniVerse Corp.\nAll Rights Reserved"
  ]
}